{
    "KPlugin": {
        "Description": "Configure settings that can improve KDE performance",
        "Description[ca@valencia]": "Configura les opcions per a millorar el rendiment de KDE",
        "Description[ca]": "Configura les opcions per a millorar el rendiment del KDE",
        "Description[es]": "Configurar las preferencias que pueden mejorar el rendimiento de KDE",
        "Description[eu]": "Konfiguratu «Konqueror»ren errendimendua hobe dezaketen ezarpenak",
        "Description[it]": "Configura le impostazioni che possono migliorare le prestazioni di KDE",
        "Description[ka]": "KDE-ის წარმადობის პარამეტრების მორგება",
        "Description[ko]": "KDE 성능 향상 설정",
        "Description[nl]": "Hier kunt u instellingen kiezen die de prestaties van KDE kunnen verbeteren",
        "Description[sl]": "Konfigurirajte nastavitve, ki lahko izboljšajo zmogljivost KDE",
        "Description[sv]": "Anpassa inställningar som kan förbättra KDE:s prestanda",
        "Description[tr]": "KDE başarımını iyileştirebilecek ayarları yapılandırın",
        "Description[uk]": "Налаштування параметрів для покращання швидкодії KDE",
        "Description[x-test]": "xxConfigure settings that can improve KDE performancexx",
        "Description[zh_CN]": "配置用于改善 KDE 性能的设置",
        "Icon": "preferences-system-performance",
        "Name": "KDE Performance",
        "Name[ca@valencia]": "Rendiment de KDE",
        "Name[ca]": "Rendiment del KDE",
        "Name[es]": "Rendimiento de KDE",
        "Name[eu]": "KDEren errendimendua",
        "Name[fr]": "Performances de KDE",
        "Name[gl]": "Rendemento de KDE",
        "Name[id]": "Performa KDE",
        "Name[it]": "Prestazioni di KDE",
        "Name[ka]": "KDE-ის წარმადობა",
        "Name[ko]": "KDE 성능",
        "Name[nb]": "KDE-ytelse",
        "Name[nl]": "KDE-prestaties",
        "Name[nn]": "KDE-yting",
        "Name[se]": "KDE-buktu",
        "Name[sl]": "Performanse KDE",
        "Name[sv]": "KDE-prestanda",
        "Name[tr]": "KDE Başarımı",
        "Name[uk]": "Швидкодія KDE",
        "Name[x-test]": "xxKDE Performancexx",
        "Name[zh_CN]": "KDE 性能",
        "ServiceTypes": [
            "KCModule"
        ]
    },
    "X-KDE-Keywords": "performance,speed,memory,improve",
    "X-KDE-Keywords[bg]": "производителност,скорост,памет,подобряване,performance,speed,memory,improve",
    "X-KDE-Keywords[bs]": "performance,speed,memory,improve",
    "X-KDE-Keywords[ca@valencia]": "rendiment,velocitat,memòria,millora",
    "X-KDE-Keywords[ca]": "rendiment,velocitat,memòria,millora",
    "X-KDE-Keywords[cs]": "výkon,rychlost,paměť,vylepšit",
    "X-KDE-Keywords[da]": "ydelse,hastighed,hukommelse,forbedr",
    "X-KDE-Keywords[de]": "Leistung,Geschwindigkeit,Speicher,optimieren,verbessern",
    "X-KDE-Keywords[el]": "απόδοση,ταχύτητα,μνήμη,βελτίωση",
    "X-KDE-Keywords[en_GB]": "performance,speed,memory,improve",
    "X-KDE-Keywords[es]": "rendimiento,velocidad,memoria,mejorar",
    "X-KDE-Keywords[et]": "jõudlus,kiirus,mälu,parandamine",
    "X-KDE-Keywords[eu]": "performatzia,jarduera,abiadura,memoria,hobetu,aurreratu",
    "X-KDE-Keywords[fi]": "suorituskyky,nopeus,muisti,paranna,parannus",
    "X-KDE-Keywords[fr]": "performance, vitesse, mémoire, améliorer",
    "X-KDE-Keywords[ga]": "oibriú,luas,cuimhne,feabhsaigh,feabhsú",
    "X-KDE-Keywords[gl]": "rendemento,velocidade,memoria,mellorar",
    "X-KDE-Keywords[hsb]": "spěšnosć,speed,memory, pomjatk,improve,performance,wukonitosć",
    "X-KDE-Keywords[hu]": "teljesítmény,sebesség,memória,fejlesztés",
    "X-KDE-Keywords[ia]": "prestation,velocitate,memoria,meliora",
    "X-KDE-Keywords[id]": "performa,kecepatan,memori,peningkatan",
    "X-KDE-Keywords[is]": "afköst,hraði,minni,bæting",
    "X-KDE-Keywords[it]": "prestazioni,velocità,memoria,migliora",
    "X-KDE-Keywords[ka]": "performance,speed,memory,improve",
    "X-KDE-Keywords[kk]": "performance,speed,memory,improve",
    "X-KDE-Keywords[km]": "ការ​អនុវត្ត ល្បឿន អង្គ​ចងចាំ ធ្វើ​ឲ្យ​ប្រសើរ",
    "X-KDE-Keywords[ko]": "performance,speed,memory,improve,성능,속도,메모리,향상",
    "X-KDE-Keywords[lt]": "našumas,greitis,atmintis,pagerinti",
    "X-KDE-Keywords[lv]": "veiktspēja,ātrums,atmiņa,uzlabot",
    "X-KDE-Keywords[nb]": "ytelse,fart,minne,forbedre",
    "X-KDE-Keywords[nds]": "Leisten,Gauheit,Spieker,Verbetern",
    "X-KDE-Keywords[nl]": "prestatie,snelheid,geheugen,verbeteren",
    "X-KDE-Keywords[nn]": "yting,fart,snøggleik,raskare,minne,forbetra",
    "X-KDE-Keywords[pa]": "ਕਾਰਗੁਜ਼ਾਰੀ,ਗਤੀ,ਸਪੀਡ,ਮੈਮੋਰੀ,ਸੁਧਾਰ",
    "X-KDE-Keywords[pl]": "wydajność,szybkość,prędkość,pamięć,ulepszenie",
    "X-KDE-Keywords[pt]": "performance,velocidade,memória,melhoria",
    "X-KDE-Keywords[pt_BR]": "desempenho,velocidade,memória,melhoria",
    "X-KDE-Keywords[ro]": "performanță,viteză,memorie,îmbunătățire",
    "X-KDE-Keywords[ru]": "performance,speed,memory,improve,быстродействие,производительность,скорость,память,улучшение",
    "X-KDE-Keywords[sk]": "výkon,rýchlosť,pamäť,zlepšenie",
    "X-KDE-Keywords[sl]": "zmogljivost,hitrost,pomnilnik,izboljšanje",
    "X-KDE-Keywords[sr@ijekavian]": "performance,speed,memory,improve,перформансе,брзина,меморија,побољшати",
    "X-KDE-Keywords[sr@ijekavianlatin]": "performance,speed,memory,improve,performanse,brzina,memorija,poboljšati",
    "X-KDE-Keywords[sr@latin]": "performance,speed,memory,improve,performanse,brzina,memorija,poboljšati",
    "X-KDE-Keywords[sr]": "performance,speed,memory,improve,перформансе,брзина,меморија,побољшати",
    "X-KDE-Keywords[sv]": "prestanda,hastighet,minne,förbättra",
    "X-KDE-Keywords[tr]": "performans,hız,bellek,geliştirme,başarım",
    "X-KDE-Keywords[uk]": "performance,speed,memory,improve,швидкодія,швидкість,пам’ять,покращення,покращити",
    "X-KDE-Keywords[wa]": "performance,raddisté,radisté,roedeu,amidrer",
    "X-KDE-Keywords[x-test]": "xxperformancexx,xxspeedxx,xxmemoryxx,xximprovexx",
    "X-KDE-Keywords[zh_CN]": "performance,speed,memory,improve,性能,速度,内存,改善",
    "X-KDE-Keywords[zh_TW]": "performance,speed,memory,improve"
}
