{
    "KPlugin": {
        "Authors": [
            {
                "Email": "sune@kde.org",
                "Name": "Sune Vuorela",
                "Name[ca@valencia]": "Sune Vuorela",
                "Name[ca]": "Sune Vuorela",
                "Name[es]": "Sune Vuorela",
                "Name[eu]": "Sune Vuorela",
                "Name[it]": "Sune Vuorela",
                "Name[ka]": "Sune Vuorela",
                "Name[ko]": "Sune Vuorela",
                "Name[nl]": "Sune Vuorela",
                "Name[sl]": "Sune Vuorela",
                "Name[sv]": "Sune Vuorela",
                "Name[tr]": "Sune Vuorela",
                "Name[uk]": "Sune Vuorela",
                "Name[x-test]": "xxSune Vuorelaxx",
                "Name[zh_CN]": "Sune Vuorela"
            },
            {
                "Email": "adawit@kde.org",
                "Name": "Dawit Alemayehu",
                "Name[ca@valencia]": "Dawit Alemayehu",
                "Name[ca]": "Dawit Alemayehu",
                "Name[es]": "Dawit Alemayehu",
                "Name[eu]": "Dawit Alemayehu",
                "Name[it]": "Dawit Alemayehu",
                "Name[ka]": "Dawit Alemayehu",
                "Name[ko]": "Dawit Alemayehu",
                "Name[nl]": "Dawit Alemayehu",
                "Name[sl]": "Dawit Alemayehu",
                "Name[sv]": "Dawit Alemayehu",
                "Name[tr]": "Dawit Alemayehu",
                "Name[uk]": "Dawit Alemayehu",
                "Name[x-test]": "xxDawit Alemayehuxx",
                "Name[zh_CN]": "Dawit Alemayehu"
            },
            {
                "Email": "uwolfer@kde.org",
                "Name": "Urs Wolfer",
                "Name[ca@valencia]": "Urs Wolfer",
                "Name[ca]": "Urs Wolfer",
                "Name[es]": "Urs Wolfer",
                "Name[eu]": "Urs Wolfer",
                "Name[it]": "Urs Wolfer",
                "Name[ka]": "ურს ვოლფერი",
                "Name[ko]": "Urs Wolfer",
                "Name[nl]": "Urs Wolfer",
                "Name[sl]": "Urs Wolfer",
                "Name[sv]": "Urs Wolfer",
                "Name[tr]": "Urs Wolfer",
                "Name[uk]": "Urs Wolfer",
                "Name[x-test]": "xxUrs Wolferxx",
                "Name[zh_CN]": "Urs Wolfer"
            },
            {
                "Email": "mhowell123@gmail.com",
                "Name": "Michael Howell",
                "Name[ca@valencia]": "Michael Howell",
                "Name[ca]": "Michael Howell",
                "Name[es]": "Michael Howell",
                "Name[eu]": "Michael Howell",
                "Name[it]": "Michael Howell",
                "Name[ka]": "Michael Howell",
                "Name[ko]": "Michael Howell",
                "Name[nl]": "Michael Howell",
                "Name[sl]": "Michael Howell",
                "Name[sv]": "Michael Howell",
                "Name[tr]": "Michael Howell",
                "Name[uk]": "Michael Howell",
                "Name[x-test]": "xxMichael Howellxx",
                "Name[zh_CN]": "Michael Howell"
            },
            {
                "Email": "montel@kde.org",
                "Name": "Laurent Montel",
                "Name[ca@valencia]": "Laurent Montel",
                "Name[ca]": "Laurent Montel",
                "Name[es]": "Laurent Montel",
                "Name[eu]": "Laurent Montel",
                "Name[it]": "Laurent Montel",
                "Name[ka]": "Laurent Montel",
                "Name[ko]": "Laurent Montel",
                "Name[nl]": "Laurent Montel",
                "Name[sl]": "Laurent Montel",
                "Name[sv]": "Laurent Montel",
                "Name[tr]": "Laurent Montel",
                "Name[uk]": "Laurent Montel",
                "Name[x-test]": "xxLaurent Montelxx",
                "Name[zh_CN]": "Laurent Montel"
            },
            {
                "Email": "mueller@kde.org",
                "Name": "Dirk Mueller",
                "Name[ca@valencia]": "Dirk Mueller",
                "Name[ca]": "Dirk Mueller",
                "Name[es]": "Dirk Mueller",
                "Name[eu]": "Dirk Mueller",
                "Name[it]": "Dirk Mueller",
                "Name[ka]": "Dirk Mueller",
                "Name[ko]": "Dirk Mueller",
                "Name[nl]": "Dirk Mueller",
                "Name[sl]": "Dirk Mueller",
                "Name[sv]": "Dirk Mueller",
                "Name[tr]": "Dirk Müller",
                "Name[uk]": "Dirk Mueller",
                "Name[x-test]": "xxDirk Muellerxx",
                "Name[zh_CN]": "Dirk Mueller"
            }
        ],
        "Copyright": "Copyright 2009-2010 Dawit Alemayehu, 2008-2010 Urs Wolfer, 2007 Trolltech ASA",
        "Copyright[ca@valencia]": "Copyright 2009-2010 Dawit Alemayehu, 2008-2010 Urs Wolfer, 2007 Trolltech ASA",
        "Copyright[ca]": "Copyright 2009-2010 Dawit Alemayehu, 2008-2010 Urs Wolfer, 2007 Trolltech ASA",
        "Copyright[es]": "Copyright 2009-2010 Dawit Alemayehu, 2008-2010 Urs Wolfer, 2007 Trolltech ASA",
        "Copyright[eu]": "Copyright 2009-2010 Dawit Alemayehu, 2008-2010 Urs Wolfer, 2007 Trolltech ASA",
        "Copyright[it]": "Copyright 2009-2010 Dawit Alemayehu, 2008-2010 Urs Wolfer, 2007 Trolltech ASA",
        "Copyright[ka]": "Copyright 2009-2010 Dawit Alemayehu, 2008-2010 Urs Wolfer, 2007 Trolltech ASA",
        "Copyright[ko]": "Copyright 2009-2010 Dawit Alemayehu, 2008-2010 Urs Wolfer, 2007 Trolltech ASA",
        "Copyright[nl]": "Copyright 2009-2010 Dawit Alemayehu, 2008-2010 Urs Wolfer, 2007 Trolltech ASA",
        "Copyright[sl]": "Copyright 2009-2010 Dawit Alemayehu, 2008-2010 Urs Wolfer, 2007 Trolltech ASA",
        "Copyright[sv]": "Copyright 2009-2010 Dawit Alemayehu, 2008-2010 Urs Wolfer, 2007 Trolltech ASA",
        "Copyright[tr]": "Telif hakkı 2009-2010 Dawit Alemayehu, 2008-2010 Urs Wolfer, 2007 Trolltech ASA",
        "Copyright[uk]": "Авторські права належать © Dawit Alemayehu, 2009-2010; © Urs Wolfer, 2008–2010; © Trolltech ASA, 2007",
        "Copyright[x-test]": "xxCopyright 2009-2010 Dawit Alemayehu, 2008-2010 Urs Wolfer, 2007 Trolltech ASAxx",
        "Copyright[zh_CN]": "Copyright 2009-2010 Dawit Alemayehu, 2008-2010 Urs Wolfer, 2007 Trolltech ASA",
        "Description": "Embeddable HTML component",
        "Description[ca@valencia]": "Component HTML incrustable",
        "Description[ca]": "Component HTML incrustable",
        "Description[es]": "Componente HTML integrable",
        "Description[eu]": "HTML osagai txertagarria",
        "Description[it]": "Componente HTML integrabile",
        "Description[ka]": "ჩადგმადი HTML კომპონენტი",
        "Description[ko]": "임베드 가능 HTML 구성 요소",
        "Description[nl]": "In te bedden HTML-component",
        "Description[sl]": "Vgradljiva komponenta HTML",
        "Description[sv]": "Inbäddningsbar HTML-komponent",
        "Description[tr]": "Gömülebilir HTML bileşeni",
        "Description[uk]": "Придатний до вбудовування компонент HTML",
        "Description[x-test]": "xxEmbeddable HTML componentxx",
        "Description[zh_CN]": "可嵌入的 HTML 组件",
        "Icon": "webengine",
        "Id": "webenginepart",
        "InitialPreference": 12,
        "License": "LGPL",
        "MimeTypes": [
            "text/html",
            "application/xml",
            "application/xhtml+xml",
            "audio/flac",
            "audio/mpeg",
            "audio/ogg",
            "audio/x-vorbis+ogg"
        ],
        "Name": "WebEngine",
        "Name[ca@valencia]": "WebEngine",
        "Name[ca]": "WebEngine",
        "Name[es]": "Motor web",
        "Name[eu]": "WebEngine",
        "Name[fr]": "WebEngine",
        "Name[gl]": "WebEngine",
        "Name[id]": "WebEngine",
        "Name[it]": "WebEngine",
        "Name[ka]": "WebEngine",
        "Name[ko]": "WebEngine",
        "Name[nl]": "WebEngine",
        "Name[nn]": "Vevmotor",
        "Name[sl]": "WebEngine",
        "Name[sv]": "Webbgränssnitt",
        "Name[tr]": "WebEngine",
        "Name[uk]": "Вебрушій",
        "Name[x-test]": "xxWebEnginexx",
        "Name[zh_CN]": "WebEngine",
        "ServiceTypes": [
            "KParts/ReadOnlyPart",
            "Browser/View"
        ],
        "Version": "1.3.0",
        "Website": ""
    },
    "MimeType": "text/html;application/xml;application/xhtml+xml;audio/flac;audio/mpeg;audio/ogg;audio/x-vorbis+ogg",
    "X-KDE-Default-UserAgent": "Mozilla/5.0 (%PLATFORM%; %SECURITY%; %OSNAME% %OSVERSION% %SYSTYPE%; %LANGUAGE%) AppleWebKit/534.34 (KHTML, like Gecko) %APPVERSION% Safari/534.34"
}
