{
    "KPlugin": {
        "Authors": [
            {
                "Email": "neundorf@kde.org",
                "Name": "Alexander Neundorf",
                "Name[ca@valencia]": "Alexander Neundorf",
                "Name[ca]": "Alexander Neundorf",
                "Name[es]": "Alexander Neundorf",
                "Name[eu]": "Alexander Neundorf",
                "Name[it]": "Alexander Neundorf",
                "Name[ka]": "Alexander Neundorf",
                "Name[ko]": "Alexander Neundorf",
                "Name[nl]": "Alexander Neundorf",
                "Name[sl]": "Alexander Neundorf",
                "Name[sv]": "Alexander Neundorf",
                "Name[tr]": "Alexander Neundorf",
                "Name[uk]": "Alexander Neundorf",
                "Name[x-test]": "xxAlexander Neundorfxx",
                "Name[zh_CN]": "Alexander Neundorf"
            }
        ],
        "Category": "Tools",
        "Description": "Shell Command Plugin for Konqueror",
        "Description[ca@valencia]": "Connector d'ordres per a Konqueror",
        "Description[ca]": "Connector d'ordres per al Konqueror",
        "Description[es]": "Complemento de órdenes de consola para Konqueror",
        "Description[eu]": "«Konqueror»rerako oskol («shell») komandoetarako plugina",
        "Description[it]": "Estensione per i comandi da shell di Konqueror",
        "Description[ka]": "გარსის ბრძანების დამატება Konqueror-თვის",
        "Description[ko]": "Konqueror 셸 명령 플러그인",
        "Description[nl]": "Een shellcommando-plugin voor Konqueror",
        "Description[sl]": "Vtičnik ukazov Shell za Konqueror",
        "Description[sv]": "Insticksprogram för skalkommandon i Konqueror",
        "Description[tr]": "Konqueror için kabuk komutu eklentisi",
        "Description[uk]": "Додаток командної оболонки для Konqueror",
        "Description[x-test]": "xxShell Command Plugin for Konquerorxx",
        "Description[zh_CN]": "Konqueror 的 Shell 命令插件",
        "EnabledByDefault": true,
        "Icon": "run",
        "Id": "kshellcmdplugin",
        "License": "GPL",
        "Name": "Shell Command Plugin",
        "Name[ca@valencia]": "Connector d'ordres",
        "Name[ca]": "Connector d'ordres",
        "Name[es]": "Complemento de órdenes de consola",
        "Name[eu]": "Oskol («Shell») komandoetarako plugina",
        "Name[fr]": "Module externe de ligne de commandes",
        "Name[gl]": "Complemento de orde de intérprete de ordes",
        "Name[id]": "Plugin Perintah Shell",
        "Name[it]": "Estensione per i comandi da shell",
        "Name[ka]": "შელის ბრძანების დამატება",
        "Name[ko]": "셸 명령 플러그인",
        "Name[nb]": "Programtillegg for skallkommandoer",
        "Name[nl]": "Shellcommando-plugin",
        "Name[nn]": "Programtillegg for skalkommandoar",
        "Name[se]": "Skálžogohččunlassemodula",
        "Name[sl]": "Vtičnik ukazov shell",
        "Name[sv]": "Insticksprogram för skalkommando",
        "Name[tr]": "Kabuk Komutu Eklentisi",
        "Name[uk]": "Додаток командної оболонки",
        "Name[x-test]": "xxShell Command Pluginxx",
        "Name[zh_CN]": "Shell 命令插件",
        "Version": "3.4",
        "Website": ""
    },
    "X-KDE-ParentApp": "konqueror"
}
